…
Let's put them into a <a class='glossary' target='_blank' title='A container for tabular data with some different properties to a data frame' href='https://psyteachr.github.io/glossary/t#tibble'>tibble</a> to make it easier to plot and analyze the data. Each row from this table represents the mean response time from a particular subject.


``` r
dat <- tibble(group = rep(c("parent", "control"), each = 50),
              rt = c(parents, control))

dat
```

```
## # A tibble: 100 × 2
##    group     rt
##    <chr>  <dbl>
##  1 parent  475.
##  2 parent  502.
##  3 parent  494.
##  4 parent  494.
##  5 parent  516.
##  6 parent  403.
##  7 parent  490.
##  8 parent  517.
##  9 parent  481.
## 10 parent  549.
## # ℹ 90 more rows
```
…
