Chapter 4 Interactions | Learning Statistical Models Through Simulation in R
…
# decomposition table
urban <- tibble(
  subj_id = 1:n_subj,
  group = "urban",
  b0 = 450,
  b1 = 2,
  dist_level = sample(0:n_subj, n_subj, replace = TRUE),
  err = rnorm(n_subj, mean = 0, sd = 80),
  simple_rt = b0 + b1 * dist_level + err)

urban

## # A tibble: 100 × 7
##    subj_id group    b0    b1 dist_level     err simple_rt
##      <int> <chr> <dbl> <dbl>      <int>   <dbl>     <dbl>
##  1       1 urban   450     2         59  -36.1       532.
##  2       2 urban   450     2         45  128.        668.
##  3       3 urban   450     2         55   23.5       584.
##  4       4 urban   450     2          8    1.04      467.
##  5       5 urban   450     2         47   48.7       593.
##  6       6 urban   450     2         96   88.2       730.
##  7       7 urban   450     2         62  110.        684.
##  8       8 urban   450     2          8  -91.6       374.
##  9       9 urban   450     2         15 -109.        371.
## 10      10 urban   450     2         70   20.7       611.
## # … with 90 more rows
…
