Chapter 1 Introduction | Learning Statistical Models Through Simulation in R
…
We chose to generate the data using rnorm()—a function that generates random numbers from a normal distribution—reflecting our assumption that mean response time is normally distributed in the population. A normal distribution is defined by two parameters, a mean (usually notated with the Greek letter \(\mu\), pronounced "myoo"), and a standard deviation (usually notated with the Greek letter \(\sigma\), pronounced "sigma"). Since we have generated the data ourselves, both \(\mu\) and \(\sigma\) are known, and in the call to rnorm(), we set them to the values 480 and 40 respectively.

But of course, to test our hypothesis, we need a comparison group, so we define a control group of non-parents. We generate data from this control group in the same way as above, but changing the mean.

control <- rnorm(n = 50, mean = 500, sd = 40)

Let's put them into a tibble to make it easier to plot and analyze the data. Each row from this table represents the mean response time from a particular subject.

dat <- tibble(group = rep(c("parent", "control"), each = 50),
              rt = c(parents, control))

dat

## # A tibble: 100 × 2
##    group     rt
##    <chr>  <dbl>
##  1 parent  475.
##  2 parent  502.
##  3 parent  494.
##  4 parent  494.
##  5 parent  516.
##  6 parent  403.
##  7 parent  490.
##  8 parent  517.
##  9 parent  481.
## 10 parent  549.
## # ℹ 90 more rows
…
