Chapter 5 Introducing Linear Mixed-Effects Models | Learning Statistical Models Through Simulation in R
…
Before discussing how to interpret the output, let’s first plot the data against our model predictions. We can get model predictions using the predict() function (see ?predict.merMod for information about use with mixed-effects models).

First, create a new data frame with predictor values for Subject and days_deprived.

newdata <- crossing(
  Subject = sleep2 %>% pull(Subject) %>% levels() %>% factor(),
  days_deprived = 0:7)

newdata

## # A tibble: 144 x 2
##    Subject days_deprived
##    <fct>           <int>
##  1 308                 0
##  2 308                 1
##  3 308                 2
##  4 308                 3
##  5 308                 4
##  6 308                 5
##  7 308                 6
##  8 308                 7
##  9 309                 0
## 10 309                 1
## # … with 134 more rows
…
