Chapter 3 Multiple regression | Learning Statistical Models Through Simulation in R
…
Let's look at some (made up, but realistic) data to see how we can use multiple regression to answer various study questions. In this hypothetical study, you have a dataset for 100 statistics students, which includes their final course grade (grade), the number of lectures each student attended (lecture, an integer ranging from 0-10), how many times each student clicked to download online materials (nclicks) and each student's grade point average prior to taking the course, GPA, which ranges from 0 (fail) to 4 (highest possible grade).

3.1.1 Data import and visualization

Let's load in the data grades.csv and have a look.

library("corrr") # correlation matrices
library("tidyverse")

grades <- read_csv("data/grades.csv", col_types = "ddii")

grades

## # A tibble: 100 × 4
##    grade   GPA lecture nclicks
##    <dbl> <dbl>   <int>   <int>
##  1  2.40 1.13        6      88
##  2  3.67 0.971       6      96
##  3  2.85 3.34        6     123
##  4  1.36 2.76        9      99
##  5  2.31 1.02        4      66
##  6  2.58 0.841       8      99
##  7  2.69 4           5      86
##  8  3.05 2.29        7     118
##  9  3.21 3.39        9      98
## 10  2.24 3.27       10     115
## # … with 90 more rows
…
\[
z = \frac{X - \mu_x}{\sigma_x}
\]

A \(z\) score represents the distance of a score \(X\) from the sample mean (\(\mu_x\)) in standard deviation units (\(\sigma_x\)). So a \(z\) score of 1 means that the score is one standard deviation about the mean; a \(z\)-score of -2.5 means 2.5 standard deviations below the mean. \(Z\)-scores give us a way of comparing things that come from different populations by calibrating them to the standard normal distribution (a distribution with a mean of 0 and a standard deviation of 1).

So we re-scale our predictors by converting them to \(z\)-scores. This is easy enough to do.

grades2 <- grades %>%
  mutate(lecture_c = (lecture - mean(lecture)) / sd(lecture),
         nclicks_c = (nclicks - mean(nclicks)) / sd(nclicks))

grades2

## # A tibble: 100 × 6
##    grade   GPA lecture nclicks lecture_c nclicks_c
##    <dbl> <dbl>   <int>   <int>     <dbl>     <dbl>
##  1  2.40 1.13        6      88  -0.484     -0.666 
##  2  3.67 0.971       6      96  -0.484     -0.150 
##  3  2.85 3.34        6     123  -0.484      1.59  
##  4  1.36 2.76        9      99   0.982      0.0439
##  5  2.31 1.02        4      66  -1.46      -2.09  
##  6  2.58 0.841       8      99   0.493      0.0439
##  7  2.69 4           5      86  -0.972     -0.796 
##  8  3.05 2.29        7     118   0.00488    1.27  
##  9  3.21 3.39        9      98   0.982     -0.0207
## 10  2.24 3.27       10     115   1.47       1.08  
## # … with 90 more rows
…
lecture_mean <- grades %>% pull(lecture) %>% mean()
min_nclicks <- grades %>% pull(nclicks) %>% min()
max_nclicks <- grades %>% pull(nclicks) %>% max()

## new data for prediction
new_nclicks <- tibble(lecture = lecture_mean,
                      nclicks = min_nclicks:max_nclicks)

## add the predicted value to new_lecture
new_nclicks2 <- new_nclicks %>%
  mutate(grade = predict(my_model, new_nclicks))

new_nclicks2

## # A tibble: 76 × 3
##    lecture nclicks grade
##      <dbl>   <int> <dbl>
##  1    6.99      54  2.37
##  2    6.99      55  2.38
##  3    6.99      56  2.38
##  4    6.99      57  2.39
##  5    6.99      58  2.39
##  6    6.99      59  2.40
##  7    6.99      60  2.40
##  8    6.99      61  2.41
##  9    6.99      62  2.41
## 10    6.99      63  2.42
## # … with 66 more rows
…
